…
## What is mean total number of steps taken per day?

Calculate Steps per Day

```r
dsteps <- activityData %>%
  filter(!is.na(steps)) %>%
  group_by(date) %>%
  summarize(dsteps = sum(steps)) %>%
  print
```

```
## # A tibble: 53 × 2
##          date dsteps
##        <date>  <dbl>
## 1  2012-10-02    126
## 2  2012-10-03  11352
## 3  2012-10-04  12116
## 4  2012-10-05  13294
## 5  2012-10-06  15420
## 6  2012-10-07  11015
## 7  2012-10-09  12811
## 8  2012-10-10   9900
## 9  2012-10-11  10304
## 10 2012-10-12  17382
## # ... with 43 more rows
```
…
4. Histogram of the total number of steps taken each day and Calculate and report the mean and median total number of steps taken per day

Calculate Steps per Day using imputed dataset

```r
dsteps2 <- activityData2 %>%
  filter(!is.na(steps)) %>%
  group_by(date) %>%
  summarize(dsteps = sum(steps)) %>%
  print
```

```
## # A tibble: 61 × 2
##          date   dsteps
##        <date>    <dbl>
## 1  2012-10-01 10766.19
## 2  2012-10-02   126.00
## 3  2012-10-03 11352.00
## 4  2012-10-04 12116.00
## 5  2012-10-05 13294.00
## 6  2012-10-06 15420.00
## 7  2012-10-07 11015.00
## 8  2012-10-08 10766.19
## 9  2012-10-09 12811.00
## 10 2012-10-10  9900.00
## # ... with 51 more rows
```
…
